data.vcd
$version Generated by VerilatedVcd $end
$timescale 1ns $end
 $scope module TOP $end
  $scope module our $end
   $var wire 1 M! clk $end
   $var wire 1 N! rst $end
   $var wire 32 V! CHAR_PART [31:0] $end
   $var wire 1 # rd $end
   $var wire 1 $ wr $end
   $var wire 11 % addr [10:0] $end
   $var wire 40 & data_in [39:0] $end
   $var wire 40 .! data_out [39:0] $end
   $var wire 1 / computation_end $end
   $var wire 32 ( file_handle [31:0] $end
   $var wire 8 ) file_char [7:0] $end
   $var wire 40 * file_data [39:0] $end
   $var wire 32 , counter [31:0] $end
   $scope module fetch_i $end
    $var wire 1 M! clk $end
    $var wire 1 N! rst $end
    $var wire 1 # rd $end
    $var wire 40 .! data_in [39:0] $end
    $var wire 1 / computation_end $end
    $var wire 1 0! r $end
    $var wire 1 1! e $end
    $var wire 1 2! o1 $end
    $var wire 1 3! o2 $end
    $var wire 1 4! w1 $end
    $var wire 1 5! w2 $end
    $var wire 1 6! reset $end
    $var wire 1 7! next $end
    $var wire 32 8! op [31:0] $end
    $var wire 32 O! counter [31:0] $end
    $scope module exec_top_i $end
     $var wire 1 M! clk $end
     $var wire 1 N! rst $end
     $var wire 1 0! r $end
     $var wire 1 1! e $end
     $var wire 1 2! o1 $end
     $var wire 1 3! o2 $end
     $var wire 1 4! w1 $end
     $var wire 1 5! w2 $end
     $var wire 1 6! reset $end
     $var wire 1 7! next $end
     $var wire 32 8! op [31:0] $end
     $var wire 1 / computation_end $end
     $var wire 1 9! push_o1 $end
     $var wire 1 :! push_o2 $end
     $var wire 1 ;! push_w1 $end
     $var wire 1 <! push_w2 $end
     $var wire 1 =! pop_o1 $end
     $var wire 1 >! pop_o2 $end
     $var wire 1 ?! pop_w1 $end
     $var wire 1 @! pop_w2 $end
     $var wire 1 0 emp_1 $end
     $var wire 1 1 emp_2 $end
     $var wire 1 A! reset_o1 $end
     $var wire 1 B! reset_o2 $end
     $var wire 1 C! next_o1 $end
     $var wire 1 D! next_o2 $end
     $var wire 32 G! data_out_o1 [31:0] $end
     $var wire 32 H! data_out_o2 [31:0] $end
     $var wire 32 E! data_out_w1 [31:0] $end
     $var wire 32 F! data_out_w2 [31:0] $end
     $var wire 32 2 data_out_m1 [31:0] $end
     $var wire 32 3 data_out_m2 [31:0] $end
     $var wire 32 I! data_out_s1 [31:0] $end
     $var wire 32 J! data_out_s2 [31:0] $end
     $var wire 32 K! data_out_s2_e [31:0] $end
     $var wire 32 L! operand [31:0] $end
     $var real 64 P! answer $end
     $scope module storage_stack_i1 $end
      $var wire 1 M! clk $end
      $var wire 1 ;! push $end
      $var wire 1 ?! pop $end
      $var wire 32 L! data_in [31:0] $end
      $var wire 32 E! data_out [31:0] $end
     $upscope $end
     $scope module storage_stack_i2 $end
      $var wire 1 M! clk $end
      $var wire 1 <! push $end
      $var wire 1 @! pop $end
      $var wire 32 L! data_in [31:0] $end
      $var wire 32 F! data_out [31:0] $end
     $upscope $end
     $scope module module_pe_mul1 $end
      $var wire 1 M! clk $end
      $var wire 1 N! rst $end
      $var wire 1 W! op $end
      $var wire 1 1! e $end
      $var wire 32 G! op1 [31:0] $end
      $var wire 32 E! op2 [31:0] $end
      $var wire 32 2 res [31:0] $end
      $var wire 32 X! DOUBLE_SIZE [31:0] $end
      $var wire 32 Y! SINGLE_SIZE [31:0] $end
      $var wire 1 4 e_ff $end
      $var wire 64 5 op1_ff [63:0] $end
      $var wire 64 7 op2_ff [63:0] $end
      $var wire 64 9 res_ff [63:0] $end
      $var wire 32 ; sigm [31:0] $end
      $var wire 32 < x [31:0] $end
      $scope module sig $end
       $var wire 32 < x [31:0] $end
       $var wire 32 ; y [31:0] $end
       $var wire 32 Z! MT4 [31:0] $end
       $var wire 32 X! DOUBLE_SIZE [31:0] $end
       $var wire 32 Y! SINGLE_SIZE [31:0] $end
       $var wire 32 [! HALF_SIZE [31:0] $end
       $var wire 32 \! HALF [31:0] $end
       $var wire 32 ]! HALF_NEG [31:0] $end
       $var wire 1 = neg $end
       $var wire 1 > more_then_4 $end
       $var wire 64 ? z [63:0] $end
       $var wire 64 A x_signed [63:0] $end
       $var wire 32 C x_func [31:0] $end
       $var wire 64 D z_sqr [63:0] $end
       $var wire 64 F z_shift [63:0] $end
      $upscope $end
     $upscope $end
     $scope module module_pe_mul2 $end
      $var wire 1 M! clk $end
      $var wire 1 N! rst $end
      $var wire 1 W! op $end
      $var wire 1 1! e $end
      $var wire 32 H! op1 [31:0] $end
      $var wire 32 F! op2 [31:0] $end
      $var wire 32 3 res [31:0] $end
      $var wire 32 X! DOUBLE_SIZE [31:0] $end
      $var wire 32 Y! SINGLE_SIZE [31:0] $end
      $var wire 1 H e_ff $end
      $var wire 64 I op1_ff [63:0] $end
      $var wire 64 K op2_ff [63:0] $end
      $var wire 64 M res_ff [63:0] $end
      $var wire 32 O sigm [31:0] $end
      $var wire 32 P x [31:0] $end
      $scope module sig $end
       $var wire 32 P x [31:0] $end
       $var wire 32 O y [31:0] $end
       $var wire 32 Z! MT4 [31:0] $end
       $var wire 32 X! DOUBLE_SIZE [31:0] $end
       $var wire 32 Y! SINGLE_SIZE [31:0] $end
       $var wire 32 [! HALF_SIZE [31:0] $end
       $var wire 32 \! HALF [31:0] $end
       $var wire 32 ]! HALF_NEG [31:0] $end
       $var wire 1 Q neg $end
       $var wire 1 R more_then_4 $end
       $var wire 64 S z [63:0] $end
       $var wire 64 U x_signed [63:0] $end
       $var wire 32 W x_func [31:0] $end
       $var wire 64 X z_sqr [63:0] $end
       $var wire 64 Z z_shift [63:0] $end
      $upscope $end
     $upscope $end
     $scope module module_pe_sum1 $end
      $var wire 1 M! clk $end
      $var wire 1 N! rst $end
      $var wire 1 ^! op $end
      $var wire 1 1! e $end
      $var wire 32 2 op1 [31:0] $end
      $var wire 32 3 op2 [31:0] $end
      $var wire 32 I! res [31:0] $end
      $var wire 32 X! DOUBLE_SIZE [31:0] $end
      $var wire 32 Y! SINGLE_SIZE [31:0] $end
      $var wire 1 \ e_ff $end
      $var wire 64 ] op1_ff [63:0] $end
      $var wire 64 _ op2_ff [63:0] $end
      $var wire 64 R! res_ff [63:0] $end
      $var wire 32 a sigm [31:0] $end
      $var wire 32 b x [31:0] $end
      $scope module sig $end
       $var wire 32 b x [31:0] $end
       $var wire 32 a y [31:0] $end
       $var wire 32 Z! MT4 [31:0] $end
       $var wire 32 X! DOUBLE_SIZE [31:0] $end
       $var wire 32 Y! SINGLE_SIZE [31:0] $end
       $var wire 32 [! HALF_SIZE [31:0] $end
       $var wire 32 \! HALF [31:0] $end
       $var wire 32 ]! HALF_NEG [31:0] $end
       $var wire 1 c neg $end
       $var wire 1 d more_then_4 $end
       $var wire 64 e z [63:0] $end
       $var wire 64 g x_signed [63:0] $end
       $var wire 32 i x_func [31:0] $end
       $var wire 64 j z_sqr [63:0] $end
       $var wire 64 l z_shift [63:0] $end
      $upscope $end
     $upscope $end
     $scope module module_pe_sum2 $end
      $var wire 1 M! clk $end
      $var wire 1 N! rst $end
      $var wire 1 ^! op $end
      $var wire 1 1! e $end
      $var wire 32 I! op1 [31:0] $end
      $var wire 32 K! op2 [31:0] $end
      $var wire 32 J! res [31:0] $end
      $var wire 32 X! DOUBLE_SIZE [31:0] $end
      $var wire 32 Y! SINGLE_SIZE [31:0] $end
      $var wire 1 n e_ff $end
      $var wire 64 o op1_ff [63:0] $end
      $var wire 64 q op2_ff [63:0] $end
      $var wire 64 T! res_ff [63:0] $end
      $var wire 32 s sigm [31:0] $end
      $var wire 32 t x [31:0] $end
      $scope module sig $end
       $var wire 32 t x [31:0] $end
       $var wire 32 s y [31:0] $end
       $var wire 32 Z! MT4 [31:0] $end
       $var wire 32 X! DOUBLE_SIZE [31:0] $end
       $var wire 32 Y! SINGLE_SIZE [31:0] $end
       $var wire 32 [! HALF_SIZE [31:0] $end
       $var wire 32 \! HALF [31:0] $end
       $var wire 32 ]! HALF_NEG [31:0] $end
       $var wire 1 u neg $end
       $var wire 1 v more_then_4 $end
       $var wire 64 w z [63:0] $end
       $var wire 64 y x_signed [63:0] $end
       $var wire 32 { x_func [31:0] $end
       $var wire 64 | z_sqr [63:0] $end
       $var wire 64 ~ z_shift [63:0] $end
      $upscope $end
     $upscope $end
     $scope module storage_queue_i1 $end
      $var wire 1 M! clk $end
      $var wire 1 N! rst $end
      $var wire 1 9! push $end
      $var wire 1 =! pop $end
      $var wire 1 A! reset $end
      $var wire 1 C! next $end
      $var wire 32 L! data_in [31:0] $end
      $var wire 32 G! data_out [31:0] $end
      $var wire 1 0 empty $end
      $var wire 6 "! addr_start [5:0] $end
      $var wire 6 #! addr_end [5:0] $end
      $var wire 6 $! addr_end_tmp [5:0] $end
      $var wire 6 (! addr_start_next [5:0] $end
      $var wire 6 )! addr_end_next [5:0] $end
      $var wire 6 *! addr_end_tmp_next [5:0] $end
     $upscope $end
     $scope module storage_queue_i2 $end
      $var wire 1 M! clk $end
      $var wire 1 N! rst $end
      $var wire 1 :! push $end
      $var wire 1 >! pop $end
      $var wire 1 B! reset $end
      $var wire 1 D! next $end
      $var wire 32 L! data_in [31:0] $end
      $var wire 32 H! data_out [31:0] $end
      $var wire 1 1 empty $end
      $var wire 6 %! addr_start [5:0] $end
      $var wire 6 &! addr_end [5:0] $end
      $var wire 6 '! addr_end_tmp [5:0] $end
      $var wire 6 +! addr_start_next [5:0] $end
      $var wire 6 ,! addr_end_next [5:0] $end
      $var wire 6 -! addr_end_tmp_next [5:0] $end
     $upscope $end
    $upscope $end
   $upscope $end
   $scope module mem_i $end
    $var wire 1 M! clk $end
    $var wire 1 # rd $end
    $var wire 1 $ wr $end
    $var wire 11 % addr [10:0] $end
    $var wire 40 & data_in [39:0] $end
    $var wire 40 .! data_out [39:0] $end
   $upscope $end
   $scope module unnamedblk1 $end
    $var wire 32 - i [31:0] $end
   $upscope $end
   $scope module unnamedblk2 $end
    $var wire 32 . i [31:0] $end
   $upscope $end
  $upscope $end
 $upscope $end
$enddefinitions $end


#0
0#
0$
b00000000000 %
b0000000000000000000000000000000000000000 &
b10000000000000000000000000101100 (
b00000000 )
b0000000000000000000000000000000000000000 *
b00000000000000000000000000000000 ,
b00000000000000000000000000000000 -
b00000000000000000000000000000000 .
1/
10
11
b00000000000000000000000000000000 2
b00000000000000000000000000000000 3
04
b0000000000000000000000000000000000000000000000000000000000000000 5
b0000000000000000000000000000000000000000000000000000000000000000 7
b0000000000000000000000000000000000000000000000000000000000000000 9
b11111111111111111111111111111111 ;
b00000000000000000000000000000000 <
0=
0>
b1111111111111111111111111111111111111111111111110000000000000000 ?
b0000000000000000000000000000000000000000000000000000000000000000 A
b11111111111111110000000000000000 C
b0000000000000000000000000000000100000000000000000000000000000000 D
b0000000000000000000000000000000000000000000000001000000000000000 F
0H
b0000000000000000000000000000000000000000000000000000000000000000 I
b0000000000000000000000000000000000000000000000000000000000000000 K
b0000000000000000000000000000000000000000000000000000000000000000 M
b11111111111111111111111111111111 O
b00000000000000000000000000000000 P
0Q
0R
b1111111111111111111111111111111111111111111111110000000000000000 S
b0000000000000000000000000000000000000000000000000000000000000000 U
b11111111111111110000000000000000 W
b0000000000000000000000000000000100000000000000000000000000000000 X
b0000000000000000000000000000000000000000000000001000000000000000 Z
0\
b0000000000000000000000000000000000000000000000000000000000000000 ]
b0000000000000000000000000000000000000000000000000000000000000000 _
b11111111111111111111111111111111 a
b00000000000000000000000000000000 b
0c
0d
b1111111111111111111111111111111111111111111111110000000000000000 e
b0000000000000000000000000000000000000000000000000000000000000000 g
b11111111111111110000000000000000 i
b0000000000000000000000000000000100000000000000000000000000000000 j
b0000000000000000000000000000000000000000000000001000000000000000 l
0n
b0000000000000000000000000000000000000000000000000000000000000000 o
b0000000000000000000000000000000000000000000000000000000000000000 q
b11111111111111111111111111111111 s
b00000000000000000000000000000000 t
0u
0v
b1111111111111111111111111111111111111111111111110000000000000000 w
b0000000000000000000000000000000000000000000000000000000000000000 y
b11111111111111110000000000000000 {
b0000000000000000000000000000000100000000000000000000000000000000 |
b0000000000000000000000000000000000000000000000001000000000000000 ~
b000000 "!
b000000 #!
b000000 $!
b000000 %!
b000000 &!
b000000 '!
b000000 (!
b000000 )!
b000000 *!
b000000 +!
b000000 ,!
b000000 -!
b0000000000000000000000000000000000000000 .!
00!
01!
02!
03!
04!
05!
06!
07!
b00000000000000000000000000000000 8!
09!
0:!
0;!
0<!
0=!
0>!
0?!
0@!
0A!
0B!
0C!
0D!
b00000000000000000000000000000000 E!
b00000000000000000000000000000000 F!
b00000000000000000000000000000000 G!
b00000000000000000000000000000000 H!
b00000000000000000000000000000000 I!
b00000000000000000000000000000000 J!
b00000000000000000000000000000000 K!
b00000000000000000000000000000000 L!
0M!
1N!
b00000000000000000000000000000000 O!
r0 P!
b0000000000000000000000000000000000000000000000000000000000000000 R!
b0000000000000000000000000000000000000000000000000000000000000000 T!
b00000000000000000000000000000101 V!
1W!
b00000000000000000000000001000000 X!
b00000000000000000000000000100000 Y!
b00000000000000000000000000010010 Z!
b00000000000000000000000000010000 [!
b00000000000000001000000000000000 \!
b11111111111111110111111111111111 ]!
0^!
#5
1$
b0010000000000000000000000000000000000000 &
b0010000000000000000000000000000000000000 *
b00000000000000000000000000000001 ,
b00000000000000000000000000000101 -
1M!
b00000000000000000000000000000001 O!
r32769 P!
#10
0M!
0N!
#15
b00000000001 %
b0001000000000000000000000000000000000000 &
b0001000000000000000000000000000000000000 *
b00000000000000000000000000000010 ,
1M!
b00000000000000000000000000000010 O!
#20
0M!
#25
b00000000010 %
b0010000000000000000000000000000000000000 &
b0010000000000000000000000000000000000000 *
b00000000000000000000000000000011 ,
1M!
b00000000000000000000000000000011 O!
#30
0M!
#35
b00000000011 %
b0001000000000000000000000000000000000000 &
b0001000000000000000000000000000000000000 *
b00000000000000000000000000000100 ,
1M!
b00000000000000000000000000000100 O!
#40
0M!
#45
b00000000100 %
b0010000000000000000000000000000000000000 &
b0010000000000000000000000000000000000000 *
b00000000000000000000000000000101 ,
1M!
b00000000000000000000000000000101 O!
#50
0M!
#55
b00000000101 %
b0001000000000000000000000000000000000000 &
b0001000000000000000000000000000000000000 *
b00000000000000000000000000000110 ,
1M!
b00000000000000000000000000000110 O!
#60
0M!
#65
b00000000110 %
b0010000000000000000000000000000000000000 &
b0010000000000000000000000000000000000000 *
b00000000000000000000000000000111 ,
1M!
b00000000000000000000000000000111 O!
#70
0M!
#75
b00000000111 %
b0001000000000000000000000000000000000000 &
b0001000000000000000000000000000000000000 *
b00000000000000000000000000001000 ,
1M!
b00000000000000000000000000001000 O!
#80
0M!
#85
b00000001000 %
b0010000000000000000000010000000000000000 &
b0010000000000000000000010000000000000000 *
b00000000000000000000000000001001 ,
1M!
b00000000000000000000000000001001 O!
#90
0M!
#95
b00000001001 %
b0001000000000000000000010000000000000000 &
b0001000000000000000000010000000000000000 *
b00000000000000000000000000001010 ,
1M!
b00000000000000000000000000001010 O!
#100
0M!
#105
b00000001010 %
b0010000000000000000000010000000000000000 &
b0010000000000000000000010000000000000000 *
b00000000000000000000000000001011 ,
1M!
b00000000000000000000000000001011 O!
#110
0M!
#115
b00000001011 %
b0001000000000000000000010000000000000000 &
b0001000000000000000000010000000000000000 *
b00000000000000000000000000001100 ,
1M!
b00000000000000000000000000001100 O!
#120
0M!
#125
b00000001100 %
b0010000000000000000000010000000000000000 &
b0010000000000000000000010000000000000000 *
b00000000000000000000000000001101 ,
1M!
b00000000000000000000000000001101 O!
#130
0M!
#135
b00000001101 %
b0001000000000000000000000000000000000000 &
b0001000000000000000000000000000000000000 *
b00000000000000000000000000001110 ,
1M!
b00000000000000000000000000001110 O!
#140
0M!
#145
b00000001110 %
b0010000000000000000000000000000000000000 &
b0010000000000000000000000000000000000000 *
b00000000000000000000000000001111 ,
1M!
b00000000000000000000000000001111 O!
#150
0M!
#155
b00000001111 %
b0001000000000000000000010000000000000000 &
b0001000000000000000000010000000000000000 *
b00000000000000000000000000010000 ,
1M!
b00000000000000000000000000010000 O!
#160
0M!
#165
b00000010000 %
b0010000000000000000000000000000000000000 &
b0010000000000000000000000000000000000000 *
b00000000000000000000000000010001 ,
1M!
b00000000000000000000000000010001 O!
#170
0M!
#175
b00000010001 %
b0001000000000000000000000000000000000000 &
b0001000000000000000000000000000000000000 *
b00000000000000000000000000010010 ,
1M!
b00000000000000000000000000010010 O!
#180
0M!
#185
b00000010010 %
b0010000000000000000000000000000000000000 &
b0010000000000000000000000000000000000000 *
b00000000000000000000000000010011 ,
1M!
b00000000000000000000000000010011 O!
#190
0M!
#195
b00000010011 %
b0001000000000000000000010000000000000000 &
b0001000000000000000000010000000000000000 *
b00000000000000000000000000010100 ,
1M!
b00000000000000000000000000010100 O!
#200
0M!
#205
b00000010100 %
b0010000000000000000000000000000000000000 &
b0010000000000000000000000000000000000000 *
b00000000000000000000000000010101 ,
1M!
b00000000000000000000000000010101 O!
#210
0M!
#215
b00000010101 %
b0001000000000000000000000000000000000000 &
b0001000000000000000000000000000000000000 *
b00000000000000000000000000010110 ,
1M!
b00000000000000000000000000010110 O!
#220
0M!
#225
b00000010110 %
b0010000000000000000000010000000000000000 &
b0010000000000000000000010000000000000000 *
b00000000000000000000000000010111 ,
1M!
b00000000000000000000000000010111 O!
#230
0M!
#235
b00000010111 %
b0001000000000000000000000000000000000000 &
b0001000000000000000000000000000000000000 *
b00000000000000000000000000011000 ,
1M!
b00000000000000000000000000011000 O!
#240
0M!
#245
b00000011000 %
b0010000000000000000000000000000000000000 &
b0010000000000000000000000000000000000000 *
b00000000000000000000000000011001 ,
1M!
b00000000000000000000000000011001 O!
#250
0M!
#255
b00000011001 %
b0001000000000000000000000000000000000000 &
b0001000000000000000000000000000000000000 *
b00000000000000000000000000011010 ,
1M!
b00000000000000000000000000011010 O!
#260
0M!
#265
b00000011010 %
b0010000000000000000000010000000000000000 &
b0010000000000000000000010000000000000000 *
b00000000000000000000000000011011 ,
1M!
b00000000000000000000000000011011 O!
#270
0M!
#275
b00000011011 %
b0001000000000000000000000000000000000000 &
b0001000000000000000000000000000000000000 *
b00000000000000000000000000011100 ,
1M!
b00000000000000000000000000011100 O!
#280
0M!
#285
b00000011100 %
b0010000000000000000000000000000000000000 &
b0010000000000000000000000000000000000000 *
b00000000000000000000000000011101 ,
1M!
b00000000000000000000000000011101 O!
#290
0M!
#295
b00000011101 %
b0001000000000000000000010000000000000000 &
b0001000000000000000000010000000000000000 *
b00000000000000000000000000011110 ,
1M!
b00000000000000000000000000011110 O!
#300
0M!
#305
b00000011110 %
b0010000000000000000000000000000000000000 &
b0010000000000000000000000000000000000000 *
b00000000000000000000000000011111 ,
1M!
b00000000000000000000000000011111 O!
#310
0M!
#315
b00000011111 %
b0001000000000000000000000000000000000000 &
b0001000000000000000000000000000000000000 *
b00000000000000000000000000100000 ,
1M!
b00000000000000000000000000100000 O!
#320
0M!
#325
b00000100000 %
b0010000000000000000000000000000000000000 &
b0010000000000000000000000000000000000000 *
b00000000000000000000000000100001 ,
1M!
b00000000000000000000000000100001 O!
#330
0M!
#335
b00000100001 %
b0001000000000000000000010000000000000000 &
b0001000000000000000000010000000000000000 *
b00000000000000000000000000100010 ,
1M!
b00000000000000000000000000100010 O!
#340
0M!
#345
b00000100010 %
b0010000000000000000000000000000000000000 &
b0010000000000000000000000000000000000000 *
b00000000000000000000000000100011 ,
1M!
b00000000000000000000000000100011 O!
#350
0M!
#355
b00000100011 %
b0001000000000000000000000000000000000000 &
b0001000000000000000000000000000000000000 *
b00000000000000000000000000100100 ,
1M!
b00000000000000000000000000100100 O!
#360
0M!
#365
b00000100100 %
b0010000000000000000000010000000000000000 &
b0010000000000000000000010000000000000000 *
b00000000000000000000000000100101 ,
1M!
b00000000000000000000000000100101 O!
#370
0M!
#375
b00000100101 %
b0001000000000000000000010000000000000000 &
b0001000000000000000000010000000000000000 *
b00000000000000000000000000100110 ,
1M!
b00000000000000000000000000100110 O!
#380
0M!
#385
b00000100110 %
b0010000000000000000000010000000000000000 &
b0010000000000000000000010000000000000000 *
b00000000000000000000000000100111 ,
1M!
b00000000000000000000000000100111 O!
#390
0M!
#395
b00000100111 %
b0001000000000000000000010000000000000000 &
b0001000000000000000000010000000000000000 *
b00000000000000000000000000101000 ,
1M!
b00000000000000000000000000101000 O!
#400
0M!
#405
b00000101000 %
b0010000000000000000000010000000000000000 &
b0010000000000000000000010000000000000000 *
b00000000000000000000000000101001 ,
1M!
b00000000000000000000000000101001 O!
#410
0M!
#415
b00000101001 %
b0001000000000000000000000000000000000000 &
b0001000000000000000000000000000000000000 *
b00000000000000000000000000101010 ,
1M!
b00000000000000000000000000101010 O!
#420
0M!
#425
b00000101010 %
b0010000000000000000000000000000000000000 &
b0010000000000000000000000000000000000000 *
b00000000000000000000000000101011 ,
1M!
b00000000000000000000000000101011 O!
#430
0M!
#435
b00000101011 %
b0001000000000000000000000000000000000000 &
b0001000000000000000000000000000000000000 *
b00000000000000000000000000101100 ,
1M!
b00000000000000000000000000101100 O!
#440
0M!
#445
b00000101100 %
b0010000000000000000000000000000000000000 &
b0010000000000000000000000000000000000000 *
b00000000000000000000000000101101 ,
1M!
b00000000000000000000000000101101 O!
#450
0M!
#455
b00000101101 %
b0001000000000000000000000000000000000000 &
b0001000000000000000000000000000000000000 *
b00000000000000000000000000101110 ,
1M!
b00000000000000000000000000101110 O!
#460
0M!
#465
b00000101110 %
b0010000000000000000000000000000000000000 &
b0010000000000000000000000000000000000000 *
b00000000000000000000000000101111 ,
1M!
b00000000000000000000000000101111 O!
#470
0M!
#475
b00000101111 %
b0001000000000000000000000000000000000000 &
b0001000000000000000000000000000000000000 *
b00000000000000000000000000110000 ,
1M!
b00000000000000000000000000110000 O!
#480
0M!
#485
b00000110000 %
b0010000000000000000000000000000000000000 &
b0010000000000000000000000000000000000000 *
b00000000000000000000000000110001 ,
1M!
b00000000000000000000000000110001 O!
#490
0M!
#495
b00000110001 %
b0000100011111111111111010100100000000011 &
b00000011 )
b0000100011111111111111010100100000000011 *
b00000000000000000000000000110010 ,
1M!
b00000000000000000000000000110010 O!
#500
0M!
#505
b00000110010 %
b0000100000000000000000111110010001100110 &
b01100110 )
b0000100000000000000000111110010001100110 *
b00000000000000000000000000110011 ,
1M!
b00000000000000000000000000110011 O!
#510
0M!
#515
b00000110011 %
b0000100000000000000000101101100100010011 &
b00010011 )
b0000100000000000000000101101100100010011 *
b00000000000000000000000000110100 ,
1M!
b00000000000000000000000000110100 O!
#520
0M!
#525
b00000110100 %
b0000100000000000000000001011010101001010 &
b01001010 )
b0000100000000000000000001011010101001010 *
b00000000000000000000000000110101 ,
1M!
b00000000000000000000000000110101 O!
#530
0M!
#535
b00000110101 %
b0000100000000000000000101101011000011000 &
b00011000 )
b0000100000000000000000101101011000011000 *
b00000000000000000000000000110110 ,
1M!
b00000000000000000000000000110110 O!
#540
0M!
#545
b00000110110 %
b0000100000000000000001000001011110010000 &
b10010000 )
b0000100000000000000001000001011110010000 *
b00000000000000000000000000110111 ,
1M!
b00000000000000000000000000110111 O!
#550
0M!
#555
b00000110111 %
b0000100000000000000000001100101111001101 &
b11001101 )
b0000100000000000000000001100101111001101 *
b00000000000000000000000000111000 ,
1M!
b00000000000000000000000000111000 O!
#560
0M!
#565
b00000111000 %
b0000100011111111111111010111011001100100 &
b01100100 )
b0000100011111111111111010111011001100100 *
b00000000000000000000000000111001 ,
1M!
b00000000000000000000000000111001 O!
#570
0M!
#575
b00000111001 %
b0000100000000000000000100111111111000100 &
b11000100 )
b0000100000000000000000100111111111000100 *
b00000000000000000000000000111010 ,
1M!
b00000000000000000000000000111010 O!
#580
0M!
#585
b00000111010 %
b0000100011111111111111111111001100110100 &
b00110100 )
b0000100011111111111111111111001100110100 *
b00000000000000000000000000111011 ,
1M!
b00000000000000000000000000111011 O!
#590
0M!
#595
b00000111011 %
b0000100011111111111111101101010100110001 &
b00110001 )
b0000100011111111111111101101010100110001 *
b00000000000000000000000000111100 ,
1M!
b00000000000000000000000000111100 O!
#600
0M!
#605
b00000111100 %
b0000100011111111111110100111110100011101 &
b00011101 )
b0000100011111111111110100111110100011101 *
b00000000000000000000000000111101 ,
1M!
b00000000000000000000000000111101 O!
#610
0M!
#615
b00000111101 %
b0000100000000000000000001001110111101000 &
b11101000 )
b0000100000000000000000001001110111101000 *
b00000000000000000000000000111110 ,
1M!
b00000000000000000000000000111110 O!
#620
0M!
#625
b00000111110 %
b0000100011111111111111111110010111100000 &
b11100000 )
b0000100011111111111111111110010111100000 *
b00000000000000000000000000111111 ,
1M!
b00000000000000000000000000111111 O!
#630
0M!
#635
b00000111111 %
b0000100011111111111111010111100010101111 &
b10101111 )
b0000100011111111111111010111100010101111 *
b00000000000000000000000001000000 ,
1M!
b00000000000000000000000001000000 O!
#640
0M!
#645
b00001000000 %
b0000100011111111111110101111000011110101 &
b11110101 )
b0000100011111111111110101111000011110101 *
b00000000000000000000000001000001 ,
1M!
b00000000000000000000000001000001 O!
#650
0M!
#655
b00001000001 %
b0000100000000000000000010011000001100100 &
b01100100 )
b0000100000000000000000010011000001100100 *
b00000000000000000000000001000010 ,
1M!
b00000000000000000000000001000010 O!
#660
0M!
#665
b00001000010 %
b0000100011111111111111001011110101010111 &
b01010111 )
b0000100011111111111111001011110101010111 *
b00000000000000000000000001000011 ,
1M!
b00000000000000000000000001000011 O!
#670
0M!
#675
b00001000011 %
b0000100011111111111111111110000111100101 &
b11100101 )
b0000100011111111111111111110000111100101 *
b00000000000000000000000001000100 ,
1M!
b00000000000000000000000001000100 O!
#680
0M!
#685
b00001000100 %
b0000100011111111111111111000110011001101 &
b11001101 )
b0000100011111111111111111000110011001101 *
b00000000000000000000000001000101 ,
1M!
b00000000000000000000000001000101 O!
#690
0M!
#695
b00001000101 %
b0000100000000000000001000110010111111001 &
b11111001 )
b0000100000000000000001000110010111111001 *
b00000000000000000000000001000110 ,
1M!
b00000000000000000000000001000110 O!
#700
0M!
#705
b00001000110 %
b0000100000000000000001000110101101001100 &
b01001100 )
b0000100000000000000001000110101101001100 *
b00000000000000000000000001000111 ,
1M!
b00000000000000000000000001000111 O!
#710
0M!
#715
b00001000111 %
b0000100011111111111111000110011111000001 &
b11000001 )
b0000100011111111111111000110011111000001 *
b00000000000000000000000001001000 ,
1M!
b00000000000000000000000001001000 O!
#720
0M!
#725
b00001001000 %
b0000100011111111111111100000101101101110 &
b01101110 )
b0000100011111111111111100000101101101110 *
b00000000000000000000000001001001 ,
1M!
b00000000000000000000000001001001 O!
#730
0M!
#735
b00001001001 %
b0000100011111111111110111010001111010001 &
b11010001 )
b0000100011111111111110111010001111010001 *
b00000000000000000000000001001010 ,
1M!
b00000000000000000000000001001010 O!
#740
0M!
#745
b00001001010 %
b0000100000000000000000001110011011111000 &
b11111000 )
b0000100000000000000000001110011011111000 *
b00000000000000000000000001001011 ,
1M!
b00000000000000000000000001001011 O!
#750
0M!
#755
b00001001011 %
b0000100011111111111111010101111010101111 &
b10101111 )
b0000100011111111111111010101111010101111 *
b00000000000000000000000001001100 ,
1M!
b00000000000000000000000001001100 O!
#760
0M!
#765
b00001001100 %
b0000100000000000000000001001000010000010 &
b10000010 )
b0000100000000000000000001001000010000010 *
b00000000000000000000000001001101 ,
1M!
b00000000000000000000000001001101 O!
#770
0M!
#775
b00001001101 %
b0000100011111111111111011101010111110011 &
b11110011 )
b0000100011111111111111011101010111110011 *
b00000000000000000000000001001110 ,
1M!
b00000000000000000000000001001110 O!
#780
0M!
#785
b00001001110 %
b0000100000000000000000000010001111010111 &
b11010111 )
b0000100000000000000000000010001111010111 *
b00000000000000000000000001001111 ,
1M!
b00000000000000000000000001001111 O!
#790
0M!
#795
b00001001111 %
b0000100000000000000001001101001111001110 &
b11001110 )
b0000100000000000000001001101001111001110 *
b00000000000000000000000001010000 ,
1M!
b00000000000000000000000001010000 O!
#800
0M!
#805
b00001010000 %
b0000010000000000000000011000001100011011 &
b00011011 )
b0000010000000000000000011000001100011011 *
b00000000000000000000000001010001 ,
1M!
b00000000000000000000000001010001 O!
#810
0M!
#815
b00001010001 %
b0000100011111111111111110011001110010010 &
b10010010 )
b0000100011111111111111110011001110010010 *
b00000000000000000000000001010010 ,
1M!
b00000000000000000000000001010010 O!
#820
0M!
#825
b00001010010 %
b0000010011111111111011001010101010011100 &
b10011100 )
b0000010011111111111011001010101010011100 *
b00000000000000000000000001010011 ,
1M!
b00000000000000000000000001010011 O!
#830
0M!
#835
b00001010011 %
b0000100011111111111111011111111111000110 &
b11000110 )
b0000100011111111111111011111111111000110 *
b00000000000000000000000001010100 ,
1M!
b00000000000000000000000001010100 O!
#840
0M!
#845
b00001010100 %
b0000010000000000000011110000111101110011 &
b01110011 )
b0000010000000000000011110000111101110011 *
b00000000000000000000000001010101 ,
1M!
b00000000000000000000000001010101 O!
#850
0M!
#855
b00001010101 %
b0000100000000000000010100100100110101111 &
b10101111 )
b0000100000000000000010100100100110101111 *
b00000000000000000000000001010110 ,
1M!
b00000000000000000000000001010110 O!
#860
0M!
#865
b00001010110 %
b0000010000000000000001111001100011010001 &
b11010001 )
b0000010000000000000001111001100011010001 *
b00000000000000000000000001010111 ,
1M!
b00000000000000000000000001010111 O!
#870
0M!
#875
b00001010111 %
b0000100011111111111111111000100111101101 &
b11101101 )
b0000100011111111111111111000100111101101 *
b00000000000000000000000001011000 ,
1M!
b00000000000000000000000001011000 O!
#880
0M!
#885
b00001011000 %
b0000010011111111111101101111111010110110 &
b10110110 )
b0000010011111111111101101111111010110110 *
b00000000000000000000000001011001 ,
1M!
b00000000000000000000000001011001 O!
#890
0M!
